guid,CourseName,CourseDuration,CourseLength,CourseFee,cricos,Code,Type,Current,AgentDisplay,CourseType
1,Advanced Diploma of Hospitality Management,85,4,16999,053261G,THH60202,,FALSE,FALSE,Vocational Education and Training
2,Advanced Diploma of Business Management,72,4,15999,053253G,BSB60201,Business Management,FALSE,FALSE,Vocational Education and Training
3,Diploma of Business Management ,49,3,11999,053251J,BSB50401,,FALSE,FALSE,Vocational Education and Training
4,Diploma of Information Technology (Network Engineering),72,4,14999,035446C,DNE,,FALSE,FALSE,Vocational Education and Training
5,Diploma of Information Technology (Multimedia Integration),72,4,14999,037693E,ICA50599,,FALSE,FALSE,Vocational Education and Training
6,Certificate III in Hospitality (Commercial Cookery),40,2,10999,053262F,THH31502,,FALSE,FALSE,Vocational Education and Training
7,Certificate IV in Business Management,,,7999,053249C,BSB41101,,FALSE,FALSE,Vocational Education and Training
8,Certificate IV in Hospitality (Commercial Cookery) ,,,10999,053263E,THH51202,,FALSE,FALSE,Vocational Education and Training
9,Diploma of Information Technology (Business Analysis) ,,,14999,,DBA,,FALSE,FALSE,Vocational Education and Training
10,Diploma of Hospitality Management ,64,3,13999,053264D,THH51202,,FALSE,FALSE,Vocational Education and Training
12,Diploma of Information Technology (Software Development) ,,,10000,037695C,ICA50299,,FALSE,FALSE,Vocational Education and Training
13,Advanced Diploma of Accounting ,,,15999,053260G,FNB60202,,FALSE,FALSE,Vocational Education and Training
14,Certificate IV in Financial Services (Accounting) ,,,5000,053258B,FNB40202,,FALSE,FALSE,Vocational Education and Training
16,Certificate III Hospitality Management,,,0,,,,FALSE,FALSE,Vocational Education and Training
18,Certificate IV in Financial Services ,,,0,,FNB40199,,FALSE,FALSE,Vocational Education and Training
19,Diploma of Financial Services ,,,0,,FNB50199,,FALSE,FALSE,Vocational Education and Training
20,Advanced Diploma of Financial Services ,,,0,,FNB60199,,FALSE,FALSE,Vocational Education and Training
21,Diploma of Accounting ,,,12000,053259A,FNS50202,,FALSE,FALSE,Vocational Education and Training
22,Certificate IV in Business (Marketing) ,,,7999,053250K,BSB40701,,FALSE,FALSE,Vocational Education and Training
23,Diploma of Business (Marketing) ,,,11999,053252G,BSB50701,,FALSE,FALSE,Vocational Education and Training
24,Advanced Diploma of Business (Marketing) ,,,15999,053254F,BSB60601,,FALSE,FALSE,Vocational Education and Training
25,Certificate IV in Training and Assessment ,,,0,,TAA40104,,FALSE,FALSE,Vocational Education and Training
26,Diploma of Training & Assessment ,,,0,,TAA50104,,FALSE,FALSE,Vocational Education and Training
27,Certificate II in Information Technology ,,,0,,C2IT,,FALSE,FALSE,Vocational Education and Training
28,Certificate III in Information Technology (General) ,,,0,,C3IT,,FALSE,FALSE,Vocational Education and Training
29,Certificate III in Information Technology (Network Administration) ,,,0,,C3NA,,FALSE,FALSE,Vocational Education and Training
30,Certificate III in Information Technology (Software Applications) ,,,0,,C3SA,,FALSE,FALSE,Vocational Education and Training
31,Certificate IV in Information Technology (Client Support) ,,,0,,C4CS,,FALSE,FALSE,Vocational Education and Training
32,Certificate IV in Information Technology (Database Administration) ,,,0,,C4DA,,FALSE,FALSE,Vocational Education and Training
33,Certificate IV in Information Technology (Multimedia) ,,,0,,C4MM,,FALSE,FALSE,Vocational Education and Training
34,Certificate IV in Information Technology (Network Management) ,,,0,,C4NM,,FALSE,FALSE,Vocational Education and Training
35,Certificate IV in Information Technology (Programming) ,,,0,,C4P,,FALSE,FALSE,Vocational Education and Training
36,Certificate IV in Information Technology (System Analysis and Design) ,,,0,,C4SAD,,FALSE,FALSE,Vocational Education and Training
37,Certificate IV in Information Technology (Technical Support) ,,,0,,C4TS,,FALSE,FALSE,Vocational Education and Training
38,Diploma of Information Technology (Systems Administration) ,48,,9750,,DSA,,FALSE,FALSE,Vocational Education and Training
39,Diploma of Information Technology (Network Engineering) ,48,0,9999,037694D,ICA50499,,FALSE,FALSE,Vocational Education and Training
40,Certificate III in Hospitality (Patisserie) ,50,,11999,068127A,SIT31107,Hospitality Management,FALSE,FALSE,Vocational Education and Training
41,Certificate III in Hospitality (Commercial Cookery) ,54,,10999,068125C,SIT30807,Hospitality Management,FALSE,FALSE,Vocational Education and Training
42,Certificate III in ESL (Further Study) ,24,2,4999,068133C,21939VIC,,FALSE,FALSE,Vocational Education and Training
45,Certificate IV in Hospitality (Commercial Cookery) ,76,,15999,068126B,SIT40407,Hospitality Management,FALSE,FALSE,Vocational Education and Training
46,Certificate IV in Hospitality (Patisserie) ,86,,15999,068128M,SIT40707,Hospitality Management,FALSE,FALSE,Vocational Education and Training
47,Diploma of Business ,50,,7999,068132D,BSB50207,Business Management,TRUE,TRUE,Vocational Education and Training
48,Diploma of Hospitality ,86,,17999,068129K,SIT50307,Hospitality Management,FALSE,FALSE,Vocational Education and Training
50,Certificate III in Printing and Graphic Arts (Graphic Pre-Press) ,54,,8999,069423G,ICP30205,Information Technology,FALSE,FALSE,Vocational Education and Training
51,Diploma of Interactive Digital Media ,54,,7999,069424F,CUF50207,Information Technology,TRUE,TRUE,Vocational Education and Training
52,Diploma of Printing and Graphic Arts (Digital Production) ,54,,9999,069425E,ICP50105,Information Technology,FALSE,FALSE,Vocational Education and Training
53,Certificate III in Automotive Mechanical Technology ,54,,10999,069421J,AUR30405,,FALSE,FALSE,Vocational Education and Training
54,Diploma of Information Technology (Networking) ,106,,14999,069422G,ICA50405,Information Technology,FALSE,FALSE,Vocational Education and Training
55,Advanced Diploma of Hospitality ,106,4,18999,068130F,SIT60307,Hospitality Management,FALSE,FALSE,Vocational Education and Training
56,Certificate IV in Business ,26,2,4999,068131E,BSB40207,Business Management,FALSE,FALSE,Vocational Education and Training
57,Certificate IV in Training and Assessment ,14,,1599,,TAE40110,Education,TRUE,FALSE,Vocational Education and Training
58,Diploma of Information Technology Networking ,66,,17999,076987A,ICA50411,Information Technology,FALSE,TRUE,Vocational Education and Training
59,Certificate IV in ESL (Further Study) ,24,2,4999,068134B,21940VIC,,FALSE,FALSE,Vocational Education and Training
61,Certificate IV in Business ,33,,4999,081665K,BSB40212,Business Management,TRUE,TRUE,Vocational Education and Training
62,Certificate III in Commercial Cookery ,64,,12999,081659G,SIT30813,Hospitality Management,TRUE,TRUE,Vocational Education and Training
63,Certificate III in Patisserie ,52,2,13999,081661C,SIT31113,Hospitality Management,TRUE,TRUE,Vocational Education and Training
64,Certificate IV in Commercial Cookery ,100,4,15999,081660D,SIT40413,Hospitality Management,TRUE,TRUE,Vocational Education and Training
65,Certificate IV in Patisserie ,88,,16999,081662B,SIT40713,Hospitality Management,TRUE,TRUE,Vocational Education and Training
67,Diploma of Hospitality ,88,,,081663A,SIT50313,Hospitality Management,TRUE,TRUE,Vocational Education and Training
69,Advanced Diploma of Hospitality ,107,4,,081664M,SIT60313,Hospitality Management,TRUE,TRUE,Vocational Education and Training
70,Certificate III in Light Vehicle Mechanical Technology ,80,,,,AUR30612,,TRUE,TRUE,Vocational Education and Training
72,Certificate III in EAL (Further Study) ,24,,,082674A,22255VIC,,TRUE,TRUE,English Course
73,Certificate IV in EAL (Further Study),24,,,082675M,22258VIC,,TRUE,TRUE,English Course
76,"Certificate III in Information, Digital Media and Technology ",42,2,5999,Not Applicable,ICA30111,Information Technology,TRUE,TRUE,Vocational Education and Training
77,Course in Preliminary Spoken and Written English ,24,1,4999,Not Applicable,10361NAT,,TRUE,TRUE,Vocational Education and Training
78,Certificate I in Spoken and Written English ,15,1,2799,085872D,10362NAT,,TRUE,TRUE,English Course
79,Certificate II in Spoken and Written English ,20,1,3999,085873C,10363NAT,,TRUE,TRUE,English Course
80,Course in Preliminary Spoken and Written English ,24,,,,10361NAT,,FALSE,FALSE,English Course
81,Food Handling Course ,,,,,,Hospitality Management,TRUE,FALSE,Vocational Education and Training
82,RSA Course ,,,,,,Hospitality Management,TRUE,FALSE,Vocational Education and Training
83,Certificate IV in Frontline Management ,,,,,BSB40812,,FALSE,FALSE,Vocational Education and Training
85,Bachelor of Information Technology and Systems ,156,6,45000,085576A,ICA70112,Information Technology,TRUE,FALSE,Undergraduate
86,Diploma of Information Technology Networking,66,,,086644G,ICT50415,Information Technology,TRUE,TRUE,Vocational Education and Training
87,Diploma of Business,50,,,087167B,BSB50215,,TRUE,TRUE,Vocational Education and Training
88,Certificate IV in Business,33,,,086902F,BSB40215,,TRUE,TRUE,Vocational Education and Training
89,"Certificate III in Information, Digital Media and Technology",,,,,ICT30115,,TRUE,FALSE,Vocational Education and Training
90,Advanced Diploma of Business,30,,,,BSB60215,,TRUE,FALSE,Vocational Education and Training
